[gd_scene load_steps=3 format=2]

[ext_resource path="res://Player.tscn" type="PackedScene" id=1]
[ext_resource path="res://wall_node.tscn" type="PackedScene" id=2]

[node name="Main" type="Node2D"]
position = Vector2( 132, 50 )
__meta__ = {
"_edit_horizontal_guides_": [ 0.0, 502.0 ]
}

[node name="Player" parent="." instance=ExtResource( 1 )]
position = Vector2( 97, 252 )

[node name="wall_node" parent="." instance=ExtResource( 2 )]
position = Vector2( 480, 312 )

[node name="Camera2D" type="Camera2D" parent="."]
position = Vector2( 198, 293 )
zoom = Vector2( 0.5, 0.5 )
